{
  "env": {
    "node": true
  },
  "extends": "airbnb-base",
  "globals": {
    "sails": true,
    "_": true,
    "async": true,
    "Raven": true,
    "SchemaValidator": true,
    "EnyoError": true,
    "MailService": true,
    "jwToken": true,
    "Notifier": true,
    "Monk": true,
    "DocumentManager": true,
    "ActivityLog": true,
    "Tools": true,
    "RefGenerator": true,
    "Config": true,
    "EventManager": true,
    "Timeline": true,
    "Promise": true,
    "AuthService": true,
    "NetworkService": true,
    "Vue": true,
    "localStorage": true,
    "$": true,
    "axios": true,
    "window": true,
    "moment": true,
    "jQuery": true,
    "App": true
  },
  "rules": {
    "no-param-reassign": 0,
    "no-useless-escape": 0,
    "no-underscore-dangle": [2, { "allow": ["_id", "_sails"] }],
    "prefer-destructuring": 0,
    "no-iterator": 1,
    "no-restricted-syntax": 1,
    "consistent-return": 1,
    "comma-dangle": 0,
    "guard-for-in": 0,
    "radix": 0,
    "object-shorthand": 1,
    "no-console": ["warn", { "allow": ["warn", "error"] }]
  }
}
